----------------------------------------------------------------------------------------------------

/

.bowerrc ( Listo NV )
.gitignore ( Listo NV )
Bitacora WordPress Theme.txt NV ->
Gulpfile.js NV ->
README ( Listo NV )
README.md ( Listo NV )

----------------------------------------------------------------------------------------------------

/wp-content/themes/WordPress-Theme/

category.php ( Listo NV )
footer-popup.php ( Listo NV )
footer.php ( Listo NV )
functions.php NV ->
header-popup.php ( Listo NV )
header.php ( Listo NV )
index.php ( Listo NV )
page-content-full-width.php ( Listo NV )
page-pop-up.php ( Listo NV )
part-banner.php ( Listo NV )
part-block-1.php ( Listo NV )
part-block-2.php ( Listo NV )
part-block-3.php ( Listo NV )
part-block-4.php ( Listo NV )
part-block-5.php ( Listo NV )
part-block-6.php ( Listo NV )
part-bottom.php ( Listo NV )
part-category.php ( Listo NV )
part-content-full-width.php ( Listo NV )
part-content.php ( Listo NV )
part-copyright.php ( Listo NV )
part-header.php ( Listo NV )
part-jivosite.php ( Listo NV )
part-menu.php ( Listo NV )
part-single.php ( Listo NV )
part-woocommerce.php ( Listo NV )
single.php ( Listo NV )
style.css ( Listo NV )
woocommerce.php ( Listo NV )

----------------------------------------------------------------------------------------------------

/wp-content/themes/WordPress-Theme/assets/

index.html ( Listo NV )

----------------------------------------------------------------------------------------------------

/wp-content/themes/WordPress-Theme/assets/css/

app.scss NV ->
index.html ( Listo NV )

----------------------------------------------------------------------------------------------------

/wp-content/themes/WordPress-Theme/assets/images/

----------------------------------------------------------------------------------------------------

/wp-content/themes/WordPress-Theme/assets/js/

app.js ( Listo NV )
index.html ( Listo NV )

----------------------------------------------------------------------------------------------------

/wp-content/themes/WordPress-Theme/build/

----------------------------------------------------------------------------------------------------